﻿[{
    "_id": "co-50",
    "_parentId": "course",
    "_type": "page",
    "_classes": "banner_01",
    "height": "570",
    "title": "مقدمة",
    "displayTitle": "مقدمة",
    "pageBody": "",
    "body": "تعرّف على كيفية استخدام منصة Facebook IQ لرؤى التسويق، لتحصل على رؤى يمكنك الاعتماد عليها في إنشاء حملاتك الإعلانية.",
    "_graphic": {
      "src": "course/en/images/contentObjects/landing_01.jpg",
      "alt": "امرأة في مكتب أمام شاشة كمبيوتر"
    },
    "linkText": "عرض",
    "durationLabel": "المدة:",
    "duration": "4 دقائق",
    "_pageLevelProgress": {
      "_isEnabled": true
    }
  },
  {
    "_id": "co-100",
    "_parentId": "course",
    "_type": "page",
    "_classes": "banner_01",
    "height": "570",
    "title": "دراسات Facebook IQ البحثية",
    "displayTitle": "دراسات Facebook IQ البحثية",
    "pageBody": "",
    "body": "توفر دراسات Facebook IQ رؤى حول الأشخاص والقطاعات والإعلانات. تعرّف على هذه الأمور الثلاث المهمة، وكيفية الاستفادة منها.",
    "_graphic": {
      "src": "course/en/images/contentObjects/landing_02.jpg",
      "alt": "3 نساء في المكتب أمام شاشة الكمبيوتر."
    },
    "linkText": "عرض",
    "durationLabel": "المدة:",
    "duration": "4 دقائق",
    "_pageLevelProgress": {
      "_isEnabled": true
    }
  },
  {
    "_id": "co-150",
    "_parentId": "course",
    "_type": "page",
    "_classes": "banner_01",
    "height": "570",
    "title": "أدوات وموارد Facebook IQ",
    "displayTitle": "أدوات وموارد Facebook IQ",
    "pageBody": "",
    "body": "يمكنك استخدام أدوات وموارد Facebook IQ لاستكشاف رؤى تستند إلى بيانات عن كثب وبالتالي اتخاذ القرارات وفقًا لهذه الرؤى.",
    "_graphic": {
      "src": "course/en/images/contentObjects/landing_03.jpg",
      "alt": "امرأة في المنزل تستخدم الكمبيوتر."
    },
    "linkText": "عرض",
    "durationLabel": "المدة:",
    "duration": "4 دقائق",
    "_pageLevelProgress": {
      "_isEnabled": true
    }
  },
	{
		"_id": "co-200",
		"_parentId": "course",
		"_type": "page",
		"_classes": "banner_01",
		"height": "570",
		"title": "ربط كل العناصر معًا",
		"displayTitle": "ربط كل العناصر معًا",
		"pageBody": "",
		"body": "توفّر منصة Facebook IQ دراسات وأدوات وموارد يمكن للمعلنين ومسؤولي التسويق الاستفادة منها. باستخدام المعلومات الناتجة عن رؤى التسويق، يمكنك إنشاء حملات إعلانية مدروسة.",
		"_graphic": {
			"src": "course/en/images/contentObjects/landing_05.jpg",
			"alt": "رجل في المكتب يعمل على الكمبيوتر مع امرأة"
		},
		"linkText": "عرض",
		"durationLabel": "المدة:",
		"duration": "4 دقائق",
		"_pageLevelProgress": {
			"_isEnabled": true
		}
	}

]
